{
    "name": "loc_null",
    "arch0": {
        "diameter" : "homg",
        "growth" : "sloc",
        "intr_chr" : "null",
        "energy" : "unif"
    },
    "spec_parent": {
        "arch": "arch0",
        "trial_runner": {
            "type": "lmrk",
            "schedule": {
                "type": "lag_homg_unif",
                "lag_slot": "0"
            },
            "select": {
                "type": "delphic_power",
                "summary": "median_weight",
                "sub": "spec_child",
                "slot": "0"
            },
            "sub": "spec_child"
        },
        "qc": "null"
    },
    "spec_child": {
        "arch": "arch0",
        "trial_runner": "canon",
        "qc": "null"
    },
   "top": "spec_parent"
}
