{
    "name": "loc_fea",
    "arch0": {
        "diameter" : "homg",
        "growth" : "sloc",
        "intr_chr" : "prox",
        "energy" : "unif"
    },
    "spec_parent": {
        "arch": "arch0",
        "trial_runner": {
            "type": "lmrk",
            "schedule": {
                "type": "lag_homg",
                "lag_slot": "0"
            },
            "select": {
                "type": "power",
                "alpha_slot": "0"
            },
            "sub": "spec_child"
        },
        "qc": "null"
    },
    "spec_child": {
        "arch": "arch0",
        "trial_runner": "canon",
        "qc": "null"
    },
   "top": "spec_parent"
}
