.git/
build/
CMakeBuild/
logs/
csv.gz/
intr.chr.0.b2p/
ligc.csv.gz/
ligc.popd.analysis/heat.png/
ligc.popd.lband.csv.gz/
ligc.popd.lband.rdata/
ligc.rdata/
log_weights/
pdb.gz/
perturb/
ligc.crop.rdata/
pml.gz/
tad.plot/
0/
1/
2/
3/
4/
5/
6/
7/
8/
9/
10
11/
12/
13/
14/
15/
16/
17/
18/
19/
